<?xml version="1.0" encoding="UTF-8" standalone="no"?>
<svg width="22px" height="21px" viewBox="0 0 22 21" version="1.1" xmlns="http://www.w3.org/2000/svg" xmlns:xlink="http://www.w3.org/1999/xlink">
    <!-- Generator: Sketch 41.2 (35397) - http://www.bohemiancoding.com/sketch -->
    <title>Group</title>
    <desc>Created with Sketch.</desc>
    <defs></defs>
    <g id="VD" stroke="none" stroke-width="1" fill="none" fill-rule="evenodd">
        <g id="De-Rontgendokters---Menu" transform="translate(-1020.000000, -53.000000)" fill="#C7C2BC">
            <g id="Group" transform="translate(1030.928626, 63.853553) rotate(-45.000000) translate(-1030.928626, -63.853553) translate(1017.428626, 50.353553)">
                <rect id="Rectangle-2" x="0.80046917" y="11.8004692" width="26" height="3"></rect>
                <rect id="Rectangle-2" transform="translate(13.800469, 13.300469) rotate(-90.000000) translate(-13.800469, -13.300469) " x="0.80046917" y="11.8004692" width="26" height="3"></rect>
            </g>
        </g>
    </g>
</svg>